# Blender v2.78 (sub 0) OBJ File: 'tree5.blend'
# www.blender.org
mtllib tree5.mtl
o Cube.001
v -2.158350 10.575576 -0.012191
v -2.158350 8.038577 -0.012192
v -4.695350 8.038577 -0.012192
v -4.695350 10.575576 -0.012191
v -2.158350 8.038577 2.524808
v -2.158350 10.575576 2.524809
v -4.695350 10.575576 2.524809
v -4.695350 8.038577 2.524808
v 0.014605 9.964975 2.673523
v 0.014605 6.438547 2.673522
v -3.511826 6.438547 2.673522
v -3.511826 9.964975 2.673523
v 0.014605 6.438546 6.199953
v 0.014605 9.964974 6.199954
v -3.511826 9.964974 6.199954
v -3.511826 6.438546 6.199953
v -3.575075 8.951634 -3.625210
v -3.575075 6.105680 -3.625210
v -5.440516 6.105680 -3.625210
v -5.440516 8.951634 -3.625210
v -3.575075 6.105680 -1.759768
v -3.575075 8.951633 -1.759768
v -5.440516 8.951633 -1.759768
v -5.440516 6.105680 -1.759768
v 2.833382 12.195030 0.362877
v 2.833382 8.631367 0.362876
v 0.240418 8.631367 0.362876
v 0.240418 12.195030 0.362877
v 2.833382 8.631366 2.955839
v 2.833382 12.195029 2.955840
v 0.240418 12.195029 2.955840
v 0.240418 8.631366 2.955839
v 6.089293 11.803057 -3.953003
v 6.089293 6.196945 -3.953004
v 1.910705 6.196945 -3.953004
v 1.910705 11.803057 -3.953003
v 6.089293 6.196944 0.225584
v 6.089293 11.803056 0.225585
v 1.910705 11.803056 0.225585
v 1.910705 6.196944 0.225584
v 1.171894 9.915513 -6.815741
v 1.171894 6.968118 -6.815741
v -1.775503 6.968118 -6.815741
v -1.775503 9.915513 -6.815741
v 1.171894 6.968118 -3.868344
v 1.171894 9.915513 -3.868343
v -1.775503 9.915513 -3.868343
v -1.775503 6.968118 -3.868344
vt 0.8788 0.0080
vt 0.9920 0.0080
vt 0.9920 0.1214
vt 0.8788 0.1214
vt 0.8788 0.2669
vt 0.9920 0.2669
vt 0.9920 0.3802
vt 0.8788 0.3802
vt 0.2665 0.9759
vt 0.2665 0.8625
vt 0.3796 0.8625
vt 0.3796 0.9759
vt 0.0080 0.9759
vt 0.0080 0.8625
vt 0.1212 0.8625
vt 0.1212 0.9759
vt 0.1373 0.9759
vt 0.1373 0.8625
vt 0.2504 0.8625
vt 0.2504 0.9759
vt 0.9920 0.2508
vt 0.8788 0.2508
vt 0.8788 0.1375
vt 0.9920 0.1375
vt 0.5863 0.4136
vt 0.7436 0.4136
vt 0.7436 0.5711
vt 0.5863 0.5711
vt 0.5863 0.5872
vt 0.7436 0.5872
vt 0.7436 0.7448
vt 0.5863 0.7448
vt 0.0080 0.5411
vt 0.1653 0.5411
vt 0.1653 0.6987
vt 0.0080 0.6987
vt 0.1814 0.6987
vt 0.1814 0.5411
vt 0.3387 0.5411
vt 0.3387 0.6987
vt 0.5702 0.5711
vt 0.4129 0.5711
vt 0.4129 0.4136
vt 0.5702 0.4136
vt 0.4129 0.7448
vt 0.4129 0.5872
vt 0.5702 0.5872
vt 0.5702 0.7448
vt 0.9746 0.8523
vt 0.9746 0.9795
vt 0.8914 0.9795
vt 0.8914 0.8523
vt 0.9904 0.4136
vt 0.9904 0.5407
vt 0.9072 0.5407
vt 0.9072 0.4136
vt 0.5122 0.9086
vt 0.5954 0.9086
vt 0.5954 0.9920
vt 0.5122 0.9920
vt 0.3031 0.8419
vt 0.3031 0.7148
vt 0.3863 0.7148
vt 0.3863 0.8419
vt 0.4129 0.9086
vt 0.4961 0.9086
vt 0.4961 0.9920
vt 0.4129 0.9920
vt 0.8914 0.8363
vt 0.8914 0.7091
vt 0.9746 0.7091
vt 0.9746 0.8363
vt 0.8627 0.0080
vt 0.8627 0.1673
vt 0.7471 0.1673
vt 0.7471 0.0080
vt 0.7310 0.1833
vt 0.7310 0.3426
vt 0.6154 0.3426
vt 0.6154 0.1833
vt 0.7596 0.7091
vt 0.8753 0.7091
vt 0.8753 0.8250
vt 0.7596 0.8250
vt 0.6154 0.1673
vt 0.6154 0.0080
vt 0.7310 0.0080
vt 0.7310 0.1673
vt 0.7596 0.8410
vt 0.8753 0.8410
vt 0.8753 0.9569
vt 0.7596 0.9569
vt 0.7471 0.3426
vt 0.7471 0.1833
vt 0.8627 0.1833
vt 0.8627 0.3426
vt 0.2105 0.5251
vt 0.2105 0.2746
vt 0.3969 0.2746
vt 0.3969 0.5251
vt 0.3969 0.0080
vt 0.3969 0.2585
vt 0.2105 0.2585
vt 0.2105 0.0080
vt 0.4129 0.2108
vt 0.5993 0.2108
vt 0.5993 0.3975
vt 0.4129 0.3975
vt 0.0080 0.2585
vt 0.0080 0.0080
vt 0.1944 0.0080
vt 0.1944 0.2585
vt 0.5993 0.1947
vt 0.4129 0.1947
vt 0.4129 0.0080
vt 0.5993 0.0080
vt 0.0080 0.5251
vt 0.0080 0.2746
vt 0.1944 0.2746
vt 0.1944 0.5251
vt 0.7177 0.7609
vt 0.7177 0.8925
vt 0.5863 0.8925
vt 0.5863 0.7609
vt 0.5444 0.7609
vt 0.5444 0.8925
vt 0.4129 0.8925
vt 0.4129 0.7609
vt 0.1556 0.7148
vt 0.2870 0.7148
vt 0.2870 0.8465
vt 0.1556 0.8465
vt 0.8911 0.5613
vt 0.8911 0.6930
vt 0.7596 0.6930
vt 0.7596 0.5613
vt 0.0080 0.7148
vt 0.1395 0.7148
vt 0.1395 0.8465
vt 0.0080 0.8465
vt 0.7596 0.5453
vt 0.7596 0.4136
vt 0.8911 0.4136
vt 0.8911 0.5453
vn 0.5774 0.5774 -0.5774
vn 0.5774 -0.5774 -0.5774
vn -0.5774 -0.5774 -0.5774
vn -0.5774 0.5774 -0.5774
vn 0.5774 -0.5774 0.5774
vn 0.5774 0.5774 0.5774
vn -0.5774 0.5774 0.5774
vn -0.5774 -0.5774 0.5774
usemtl None
s 1
f 1/1/1 2/2/2 3/3/3 4/4/4
f 5/5/5 6/6/6 7/7/7 8/8/8
f 5/9/5 8/10/8 3/11/3 2/12/2
f 6/13/6 5/14/5 2/15/2 1/16/1
f 7/17/7 6/18/6 1/19/1 4/20/4
f 8/21/8 7/22/7 4/23/4 3/24/3
f 9/25/1 10/26/2 11/27/3 12/28/4
f 13/29/5 14/30/6 15/31/7 16/32/8
f 13/33/5 16/34/8 11/35/3 10/36/2
f 14/37/6 13/38/5 10/39/2 9/40/1
f 15/41/7 14/42/6 9/43/1 12/44/4
f 16/45/8 15/46/7 12/47/4 11/48/3
f 17/49/1 18/50/2 19/51/3 20/52/4
f 21/53/5 22/54/6 23/55/7 24/56/8
f 21/57/5 24/58/8 19/59/3 18/60/2
f 22/61/6 21/62/5 18/63/2 17/64/1
f 23/65/7 22/66/6 17/67/1 20/68/4
f 24/69/8 23/70/7 20/71/4 19/72/3
f 25/73/1 26/74/2 27/75/3 28/76/4
f 29/77/5 30/78/6 31/79/7 32/80/8
f 29/81/5 32/82/8 27/83/3 26/84/2
f 30/85/6 29/86/5 26/87/2 25/88/1
f 31/89/7 30/90/6 25/91/1 28/92/4
f 32/93/8 31/94/7 28/95/4 27/96/3
f 33/97/1 34/98/2 35/99/3 36/100/4
f 37/101/5 38/102/6 39/103/7 40/104/8
f 37/105/5 40/106/8 35/107/3 34/108/2
f 38/109/6 37/110/5 34/111/2 33/112/1
f 39/113/7 38/114/6 33/115/1 36/116/4
f 40/117/8 39/118/7 36/119/4 35/120/3
f 41/121/1 42/122/2 43/123/3 44/124/4
f 45/125/5 46/126/6 47/127/7 48/128/8
f 45/129/5 48/130/8 43/131/3 42/132/2
f 46/133/6 45/134/5 42/135/2 41/136/1
f 47/137/7 46/138/6 41/139/1 44/140/4
f 48/141/8 47/142/7 44/143/4 43/144/3
o Generic
v 0.920694 1.156092 -0.389866
v 0.946406 1.374795 0.038106
v 1.087684 0.923321 -0.353878
v 0.858173 1.649419 -0.496305
v -0.577038 0.570999 -0.835782
v -0.589332 0.651960 -0.648949
v -0.601257 0.823447 -0.726604
v -0.173620 1.079491 0.580145
v -0.621566 0.978873 0.947881
v -0.400739 0.673330 0.473469
v -0.636917 0.469446 -0.048955
v -0.749228 0.631070 0.302904
v -0.878798 0.532015 0.056486
v -1.003873 0.918110 0.428762
v -0.779990 1.768056 0.048971
v -1.008097 0.831785 -0.024132
v -0.011923 0.765261 -0.590169
v 0.031050 0.671453 -0.927010
v 0.071054 0.981924 -0.837784
v 0.080319 1.110372 0.515306
v -0.083114 1.308328 0.062412
v -0.090168 1.648976 0.579662
v 0.779870 2.361264 -0.033252
v -0.017604 3.062523 0.341882
v 0.880238 0.949414 -0.272902
v 0.354512 1.000000 -0.378405
v 0.241397 1.158997 0.665177
v 0.404238 3.416740 0.008969
v 0.455707 1.127513 0.489608
v 0.661060 1.230998 0.300659
v 0.436956 1.144066 0.823855
v 1.187209 0.584943 1.368024
v 0.864447 0.860871 1.177542
v 0.216360 1.355366 0.721662
v -0.760631 1.231669 0.603141
v -1.401479 -0.000000 1.436800
v -0.635540 1.094969 -0.167476
v -0.944543 0.894968 -0.522887
v 0.825938 1.280458 -0.895139
v 0.275381 1.619602 -0.820276
v -0.335419 1.884165 -0.615122
v -0.125776 1.288422 -0.872591
v -0.329438 1.133120 -0.888014
v -0.062387 0.974399 -1.083497
v 0.605656 1.127319 -0.865038
v 0.432497 1.046184 -0.644967
v 1.219525 1.137092 -0.578909
v -0.740508 0.640944 -0.600033
v -0.891675 0.713280 -0.660687
v -0.711043 0.805442 -0.588386
v 0.645617 0.889064 -0.771787
v -0.584986 0.417539 -0.492092
v -0.171185 0.572452 -1.000000
v 1.053558 1.290575 -0.756063
v -0.002681 0.807897 -1.007864
v -0.032758 3.380396 -1.035864
v -0.337756 3.610312 -1.018808
v -0.557090 1.162869 -0.444929
v -0.503728 0.537765 -0.672431
v -0.637820 0.705151 -0.951888
v -0.366634 0.468078 -1.246439
v -0.252749 0.000000 -1.701705
v -0.302875 0.964901 -1.179070
v -0.638376 0.533543 -0.600764
v -0.552872 0.603806 -0.381611
v -0.749255 0.852571 -0.541493
v -0.871851 1.031521 -0.182571
v -0.767019 0.639499 -0.534901
v -0.948506 0.455610 -0.208932
v -0.711099 0.571672 -0.058354
v -0.724232 0.465125 -0.598988
v -0.842293 0.531214 -0.658157
v -1.006470 0.434482 -0.607590
v -0.900597 0.673628 -0.602979
v -0.852325 0.555360 -0.589474
v -0.802352 0.512571 -0.487092
v -0.862655 0.407340 -0.416316
v -0.768557 0.473795 -0.340611
v -0.729274 0.496837 -0.235483
v -1.095709 0.600982 -0.557089
v -2.616115 0.000000 -0.450723
v -1.171884 0.465302 -0.708745
v -0.691970 0.630399 -0.580168
v -0.673025 0.444176 -0.500700
v -0.464562 1.072688 -0.811725
v 0.021207 0.634417 -1.185313
v 1.269754 1.051135 -1.026814
v 2.000000 0.000000 -1.248565
v 1.972109 -0.000000 1.937324
v 1.375990 1.054765 0.952036
v 1.251797 1.310674 0.746766
v 1.542465 0.343539 1.654475
v 1.196796 0.576480 1.197129
v 1.198135 0.846419 0.504214
v 1.197356 0.769367 0.907150
v 1.758419 0.173034 1.541650
v -0.320174 0.672368 -0.554288
v -0.827909 0.646282 0.133355
v -0.750283 1.026795 -0.028182
v 0.491480 2.777190 -0.656149
v 0.553579 3.781695 -0.853242
v 0.780618 4.104259 -1.306380
v 1.147463 4.388285 -1.134123
v 0.492558 4.138277 -1.436263
v 0.353996 3.613403 -1.146535
v 0.591363 4.901896 -1.331078
v 0.665393 4.662405 -1.562347
v 0.002910 4.659160 -1.292406
v 0.624712 4.749606 -1.049905
v 4.000000 6.704918 -1.999999
v 1.151865 4.685239 -1.834673
v 1.046494 4.203746 -1.422165
v -4.595816 6.282612 -2.868267
v -1.136602 3.736687 -0.866686
v -1.242747 3.812567 -0.580171
v -0.905555 2.916737 -0.599423
v -1.285713 5.107392 -1.156740
v -0.984957 4.544497 -1.496512
v -0.938210 4.034858 -1.235489
v -0.462151 2.831101 0.200313
v -0.937968 3.164292 -0.268990
v 0.623071 3.341267 -0.353629
v -1.277760 4.303397 -0.182666
v -3.528207 8.586820 1.616192
v -0.784096 5.000000 -0.980935
v 0.248112 4.101643 -0.260691
v -0.014043 3.924429 0.094306
v -0.663835 5.567411 -0.181437
v 1.456885 9.363092 1.296760
v 0.000000 7.000001 -5.330430
v -0.378514 5.006434 0.178563
v -0.340522 4.391716 0.461207
v -2.000000 7.603604 3.770780
v -0.719525 5.635398 0.846749
v -0.543072 5.258033 0.476758
v -0.718241 5.675209 0.569091
v -0.700529 5.545441 0.988071
v -0.492418 3.865597 0.193039
v -1.000000 4.723130 0.056479
v -0.747710 4.532680 0.196434
v 0.221165 4.906761 -0.951860
v 1.079227 1.768380 0.461535
v 0.926170 2.071512 0.208558
v 0.415958 1.244283 0.912860
v 0.945457 0.820901 1.261446
v 1.461489 0.804940 0.991846
vt 0.6196 0.7392
vt 0.6021 0.7541
vt 0.6158 0.7226
vt 0.6347 0.7654
vt 0.5764 0.4331
vt 0.5885 0.4342
vt 0.5880 0.4448
vt 0.5246 0.8718
vt 0.5455 0.8965
vt 0.5126 0.8836
vt 0.1893 0.7887
vt 0.1911 0.8087
vt 0.1786 0.8003
vt 0.6588 0.4238
vt 0.6527 0.4811
vt 0.6323 0.4265
vt 0.4189 0.9467
vt 0.4048 0.9336
vt 0.4189 0.9263
vt 0.5682 0.7911
vt 0.5804 0.8011
vt 0.5503 0.8165
vt 0.2326 0.4142
vt 0.1690 0.4224
vt 0.1761 0.3560
vt 0.5723 0.8827
vt 0.5672 0.8703
vt 0.5723 0.8382
vt 0.3744 0.8045
vt 0.3581 0.7746
vt 0.3699 0.7687
vt 0.5173 0.8382
vt 0.2137 0.8075
vt 0.2137 0.7706
vt 0.1432 0.3603
vt 0.0720 0.9486
vt 0.0972 0.9320
vt 0.0788 0.9553
vt 0.0972 0.9810
vt 0.5537 0.7738
vt 0.5693 0.7788
vt 0.3487 0.7821
vt 0.5164 0.8064
vt 0.5126 0.7676
vt 0.5365 0.7712
vt 0.3806 0.7586
vt 0.4005 0.6979
vt 0.3944 0.7250
vt 0.3780 0.7778
vt 0.7759 0.4001
vt 0.7601 0.4143
vt 0.7435 0.3492
vt 0.5455 0.8502
vt 0.4170 0.9046
vt 0.4048 0.8888
vt 0.4170 0.8796
vt 0.6248 0.4499
vt 0.6055 0.4395
vt 0.4213 0.8323
vt 0.4213 0.8578
vt 0.4048 0.8362
vt 0.6715 0.4424
vt 0.5443 0.9620
vt 0.7971 0.4349
vt 0.7462 0.4436
vt 0.7003 0.3492
vt 0.6423 0.4143
vt 0.1923 0.8929
vt 0.0882 0.5948
vt 0.0597 0.5733
vt 0.0996 0.5702
vt 0.0313 0.5553
vt 0.0370 0.5930
vt 0.0258 0.6021
vt 0.0491 0.6114
vt 0.0355 0.6133
vt 0.9714 0.0109
vt 0.9634 0.0369
vt 0.9472 0.0322
vt 0.6348 0.7274
vt 0.1289 0.9645
vt 0.1189 0.9607
vt 0.1302 0.9545
vt 0.9892 0.3886
vt 0.9701 0.3666
vt 0.9892 0.3492
vt 0.7331 0.8416
vt 0.7500 0.8475
vt 0.7377 0.8679
vt 0.0736 0.6068
vt 0.7219 0.8616
vt 0.7418 0.8818
vt 0.6618 0.9229
vt 0.6806 0.8871
vt 0.6927 0.9069
vt 0.1188 0.9488
vt 0.1042 0.5936
vt 0.5968 0.4397
vt 0.6927 0.8880
vt 0.0773 0.6035
vt 0.0410 0.6228
vt 0.0451 0.6306
vt 0.6444 0.7384
vt 0.0346 0.4686
vt 0.0181 0.4543
vt 0.1409 0.9320
vt 0.6642 0.9100
vt 0.6581 0.9009
vt 0.6527 0.8931
vt 0.6674 0.8761
vt 0.6932 0.8072
vt 0.6822 0.7922
vt 0.6932 0.7622
vt 0.6099 0.4597
vt 0.0200 0.6141
vt 0.9519 0.0450
vt 0.6569 0.9157
vt 0.7654 0.3171
vt 0.7590 0.3119
vt 0.7654 0.3102
vt 0.6126 0.5063
vt 0.1358 0.9641
vt 0.5819 0.4694
vt 0.5831 0.4812
vt 0.5621 0.4654
vt 0.7374 0.3177
vt 0.7299 0.3139
vt 0.7374 0.3102
vt 0.9179 0.6793
vt 0.9164 0.6595
vt 0.9394 0.6525
vt 0.1760 0.9331
vt 0.1676 0.9397
vt 0.1667 0.9235
vt 0.6527 0.9891
vt 0.6651 0.9795
vt 0.6734 0.9891
vt 0.9704 0.4104
vt 0.9883 0.4401
vt 0.9701 0.4401
vt 0.1348 0.9708
vt 0.9394 0.6829
vt 0.1409 0.9770
vt 0.1305 0.9750
vt 0.1223 0.9715
vt 0.6673 0.9604
vt 0.6730 0.9746
vt 0.6658 0.9716
vt 0.9657 0.6817
vt 0.9654 0.6683
vt 0.9719 0.6686
vt 0.9725 0.6622
vt 0.9847 0.6681
vt 0.9767 0.6575
vt 0.9847 0.6525
vt 0.6822 0.7241
vt 0.6931 0.6387
vt 0.6931 0.7404
vt 0.6605 0.9738
vt 0.9611 0.6741
vt 0.9472 0.1875
vt 0.9578 0.1926
vt 0.9657 0.2101
vt 0.1792 0.9688
vt 0.1884 0.9392
vt 0.6144 0.3602
vt 0.3832 0.9145
vt 0.3745 0.9458
vt 0.3514 0.8323
vt 0.3487 0.9507
vt 0.7982 0.8416
vt 0.7982 0.9621
vt 0.7717 0.9477
vt 0.1667 0.7967
vt 0.9657 0.1303
vt 0.5867 0.4624
vt 0.5738 0.4415
vt 0.5489 0.4379
vt 0.6899 0.8736
vt 0.0108 0.6754
vt 0.0380 0.6344
vt 0.6728 0.8544
vt 0.1315 0.8910
vt 0.1443 0.8869
vt 0.1380 0.8982
vt 0.5126 0.4216
vt 0.1443 0.9079
vt 0.1094 0.6100
vt 0.7500 0.9683
vt 0.9714 0.1086
vt 0.1451 0.6754
vt 0.6577 0.7169
vt 0.9667 0.9720
vt 0.9418 0.9072
vt 0.9667 0.8746
vt 0.6605 0.6387
vt 0.5703 0.7637
vt 0.9656 0.7098
vt 0.9651 0.7989
vt 0.9642 0.8193
vt 0.9557 0.7393
vt 0.5804 0.6387
vt 0.5753 0.7026
vt 0.5667 0.7078
vt 0.5309 0.7339
vt 0.5511 0.7196
vt 0.1413 0.7990
vt 0.1315 0.7776
vt 0.1413 0.6972
vt 0.1401 0.7160
vt 0.6239 0.8090
vt 0.1990 0.9211
vt 0.0136 0.9850
vt 0.0108 0.9660
vt 0.0375 0.9861
vt 0.1990 0.9428
vt 0.1726 0.9146
vt 0.6912 0.9387
vt 0.0375 0.9399
vt 0.0738 0.5031
vt 0.6605 0.8327
vt 0.9630 0.6531
vt 0.3832 0.9653
vt 0.8212 0.9518
vt 0.8443 0.9424
vt 0.8443 0.9788
vt 0.4450 0.8806
vt 0.4609 0.9101
vt 0.4429 0.9223
vt 0.0333 0.7212
vt 0.0190 0.7085
vt 0.0503 0.6972
vt 0.8581 0.7450
vt 0.8379 0.7422
vt 0.8568 0.7203
vt 0.4762 0.8210
vt 0.4429 0.8090
vt 0.4904 0.6345
vt 0.8797 0.8731
vt 0.9202 0.7098
vt 0.9202 0.8931
vt 0.4869 0.8257
vt 0.4781 0.9506
vt 0.4574 0.9275
vt 0.4781 0.9017
vt 0.8581 0.9207
vt 0.8212 0.7616
vt 0.1424 0.8207
vt 0.1424 0.8652
vt 0.1315 0.8575
vt 0.5230 0.0109
vt 0.2855 0.1254
vt 0.2750 0.1116
vt 0.6678 0.5971
vt 0.6490 0.5995
vt 0.6432 0.5535
vt 0.4909 0.6127
vt 0.3735 0.4089
vt 0.3926 0.3769
vt 0.3024 0.1476
vt 0.8272 0.7098
vt 0.7710 0.5060
vt 0.6669 0.5611
vt 0.7995 0.5177
vt 0.7340 0.5265
vt 0.6268 0.6087
vt 0.9714 0.2917
vt 0.9472 0.2614
vt 0.9714 0.2318
vt 0.1246 0.3783
vt 0.0720 0.8445
vt 0.1098 0.6972
vt 0.1098 0.9102
vt 0.7219 0.5972
vt 0.2543 0.6127
vt 0.3547 0.3823
vt 0.8001 0.2885
vt 0.7299 0.0189
vt 0.8001 0.0109
vt 0.4056 0.3492
vt 0.9164 0.6218
vt 0.9484 0.3492
vt 0.9484 0.6308
vt 0.1105 0.3289
vt 0.1371 0.3212
vt 0.0807 0.2293
vt 0.8212 0.4209
vt 0.8947 0.3492
vt 0.8947 0.6881
vt 0.8948 0.2662
vt 0.9255 0.0109
vt 0.9255 0.3149
vt 0.3271 0.6352
vt 0.3271 0.9594
vt 0.2847 0.6345
vt 0.7083 0.3021
vt 0.6616 0.2835
vt 0.7083 0.0109
vt 0.6361 0.2596
vt 0.1125 0.2574
vt 0.1451 0.2814
vt 0.1667 0.7249
vt 0.2226 0.4441
vt 0.2067 0.7211
vt 0.2326 0.0109
vt 0.1308 0.2035
vt 0.1217 0.2343
vt 0.1156 0.2073
vt 0.1404 0.2054
vt 0.7727 0.5680
vt 0.6145 0.0109
vt 0.5979 0.0358
vt 0.5447 0.0544
vt 0.8732 0.2969
vt 0.8218 0.2345
vt 0.8732 0.0109
vt 0.7614 0.6095
vt 0.7447 0.6218
vt 0.7899 0.5999
vt 0.2766 0.6595
vt 0.2543 0.6612
vt 0.7995 0.8198
vt 0.7961 0.5679
vt 0.7884 0.6739
vt 0.7003 0.6170
vt 0.2226 0.7488
vt 0.6145 0.3248
vt 0.5664 0.0936
vt 0.3088 0.3919
vt 0.0524 0.4558
vt 0.0706 0.4441
vt 0.1285 0.4062
vt 0.0869 0.3657
vt 0.4636 0.8814
vt 0.0108 0.7424
vt 0.0503 0.9181
vt 0.4904 0.8589
vt 0.0466 0.3630
vt 0.0462 0.3273
vt 0.0108 0.0936
vt 0.0514 0.3047
vt 0.2543 0.2116
vt 0.2569 0.1872
vt 0.5230 0.3274
vt 0.2681 0.1714
vt 0.8797 0.9241
vt 0.9196 0.9148
vt 0.9196 0.9576
vt 0.4213 0.7664
vt 0.4213 0.7890
vt 0.3859 0.7628
vt 0.3979 0.7191
vt 0.6310 0.9640
vt 0.6084 0.9494
vt 0.6274 0.8759
vt 0.6310 0.8983
vt 0.4115 0.6699
vt 0.9607 0.8528
vt 0.9418 0.7803
vt 0.5673 0.6643
vt 0.9719 0.7326
vt 0.9719 0.7842
vt 0.4213 0.6345
vt 0.5456 0.7042
vt 0.4213 0.8106
vt 0.6021 0.9106
vt 0.6239 0.8544
vn 0.8497 0.4035 0.3395
vn 0.8868 -0.4245 0.1828
vn 0.5995 -0.3388 0.7251
vn 0.8452 0.4292 -0.3184
vn -0.7580 -0.6449 -0.0976
vn -0.7167 -0.2695 -0.6432
vn -0.9611 0.1344 -0.2411
vn 0.6555 -0.5539 0.5134
vn 0.3520 0.1121 0.9293
vn 0.6553 -0.7286 0.1994
vn 0.5031 -0.7919 0.3460
vn -0.4643 -0.8787 0.1110
vn -0.6553 -0.7528 0.0625
vn -0.9993 0.0328 0.0201
vn -0.9874 0.1531 0.0396
vn -0.9918 0.1279 0.0021
vn 0.5545 -0.8014 0.2242
vn 0.8959 -0.4432 0.0298
vn 0.8481 -0.2305 -0.4770
vn -0.0817 -0.9348 0.3456
vn 0.4299 -0.8989 0.0851
vn -0.2647 0.1249 0.9562
vn 0.9126 0.2859 0.2922
vn 0.1779 0.1732 0.9687
vn -0.0353 -0.7969 0.6030
vn -0.1319 -0.9577 0.2558
vn -0.3813 -0.7579 0.5293
vn 0.6823 0.2982 0.6675
vn -0.1057 -0.9923 -0.0652
vn -0.1965 -0.9479 -0.2509
vn -0.5778 -0.7401 0.3441
vn -0.6832 -0.6932 0.2296
vn -0.7234 -0.5133 0.4618
vn -0.6976 -0.4643 0.5457
vn -0.5917 0.6095 0.5276
vn -0.8423 -0.3659 0.3958
vn -0.7825 0.5247 -0.3353
vn -0.3598 0.7648 -0.5345
vn 0.0678 0.4301 -0.9002
vn 0.1377 0.0746 -0.9877
vn -0.5464 0.0371 -0.8367
vn -0.1867 0.5243 -0.8308
vn -0.6180 0.4153 -0.6675
vn 0.6025 0.3412 -0.7215
vn -0.4610 -0.2218 -0.8592
vn -0.1284 -0.7173 -0.6848
vn 0.7780 0.5196 0.3532
vn 0.0101 0.0308 -0.9995
vn 0.2043 0.3242 -0.9237
vn -0.2870 0.2582 -0.9225
vn -0.6403 -0.5753 -0.5090
vn 0.3275 -0.9104 -0.2527
vn 0.0608 -0.9934 0.0974
vn 0.5630 0.7345 -0.3789
vn 0.9502 0.1454 -0.2755
vn -0.0409 -0.4365 -0.8988
vn -0.3341 -0.4996 -0.7992
vn -0.8061 0.3798 -0.4539
vn -0.5038 -0.7143 -0.4857
vn -0.9249 -0.2749 -0.2626
vn -0.9615 -0.0871 -0.2606
vn 0.2085 -0.3268 -0.9218
vn -0.4715 0.5460 -0.6925
vn -0.0244 -0.3321 -0.9429
vn 0.8802 -0.3954 -0.2625
vn 0.3858 0.4605 -0.7995
vn 0.4965 0.7965 0.3452
vn 0.5613 -0.1817 -0.8074
vn -0.0240 -0.8998 0.4357
vn 0.4481 -0.4824 0.7526
vn 0.3320 -0.4383 -0.8353
vn 0.2711 -0.0492 -0.9613
vn 0.3054 -0.7266 -0.6154
vn 0.3602 -0.0074 -0.9329
vn 0.5280 -0.2732 -0.8041
vn 0.5975 -0.6149 -0.5146
vn 0.3821 -0.9166 -0.1177
vn 0.4676 -0.8832 -0.0370
vn 0.4056 -0.8941 0.1902
vn -0.5611 0.5779 -0.5927
vn -0.5833 -0.1519 -0.7979
vn -0.1364 0.1737 -0.9753
vn 0.1806 -0.0842 -0.9799
vn 0.3264 -0.7845 -0.5273
vn -0.7549 0.3949 -0.5237
vn 0.9749 -0.1943 -0.1084
vn 0.5041 0.6968 -0.5103
vn -0.0478 -0.5416 -0.8393
vn -0.0599 -0.9617 -0.2676
vn 0.8753 0.0438 -0.4815
vn 0.9468 0.2919 -0.1356
vn -0.2138 -0.2996 0.9298
vn -0.4872 -0.8588 -0.1585
vn 0.7890 -0.1224 -0.6021
vn -0.2483 -0.8487 -0.4669
vn 0.8582 -0.1932 -0.4756
vn 0.7542 -0.0042 -0.6566
vn 0.7438 0.1268 0.6562
vn 0.7920 0.4766 0.3816
vn 0.7707 -0.0706 -0.6333
vn 0.9438 -0.3279 -0.0408
vn 0.4382 -0.7949 -0.4197
vn 0.7900 -0.4770 0.3852
vn 0.4021 -0.5120 -0.7591
vn 0.5551 -0.5601 -0.6149
vn -0.4359 0.8869 -0.1528
vn -0.1646 0.5827 -0.7959
vn 0.0013 0.9744 0.2248
vn 0.2499 0.3692 0.8951
vn -0.3310 0.9149 -0.2313
vn 0.1664 -0.4856 -0.8582
vn 0.5780 -0.7809 -0.2370
vn -0.5112 -0.6299 -0.5848
vn -0.4817 -0.6643 -0.5715
vn -0.8620 -0.4826 0.1548
vn -0.8117 -0.3423 -0.4733
vn 0.1096 0.8380 -0.5346
vn -0.2727 0.3215 -0.9068
vn -0.3134 -0.6302 -0.7104
vn -0.5419 0.0088 0.8404
vn -0.9051 -0.1994 0.3755
vn 0.9725 0.2088 0.1036
vn -0.6929 -0.0917 0.7151
vn 0.2283 0.8322 -0.5053
vn -0.0398 0.8577 -0.5127
vn 0.7277 0.1763 0.6628
vn 0.6647 0.2332 0.7097
vn 0.1931 0.9068 0.3748
vn -0.2160 0.1055 0.9707
vn -0.0062 -0.5174 -0.8557
vn 0.8917 0.4507 0.0410
vn 0.6933 0.1017 0.7134
vn -0.9716 -0.0485 0.2317
vn 0.9010 0.4226 0.0976
vn 0.8183 0.5739 -0.0327
vn -0.5122 0.6238 -0.5904
vn 0.9290 0.3170 0.1908
vn -0.2620 -0.1201 0.9576
vn -0.9529 0.0517 0.2990
vn -0.3895 -0.2972 0.8717
vn 0.5907 -0.4480 0.6711
vn 0.7721 0.5620 0.2967
vn 0.7404 0.6077 0.2872
vn -0.4928 0.1097 0.8632
vn -0.1794 0.3581 0.9163
vn 0.9130 0.1141 -0.3916
usemtl None
s 1
f 49/145/9 50/146/10 51/147/11
f 50/146/10 49/145/9 52/148/12
f 53/149/13 54/150/14 55/151/15
f 56/152/16 57/153/17 58/154/18
f 59/155/19 60/156/20 61/157/21
f 62/158/22 63/159/23 64/160/24
f 65/161/25 66/162/26 67/163/27
f 68/164/28 56/165/16 69/166/29
f 70/167/30 71/168/31 72/169/32
f 51/170/11 73/171/33 74/172/34
f 70/173/30 68/174/28 75/175/35
f 58/154/18 69/176/29 56/152/16
f 58/177/18 59/155/19 69/178/29
f 58/177/18 60/156/20 59/155/19
f 72/169/32 71/168/31 76/179/36
f 51/180/11 50/181/10 73/182/33
f 50/181/10 74/183/34 73/182/33
f 68/164/28 77/184/37 75/185/35
f 70/173/30 56/186/16 68/174/28
f 77/184/37 74/187/34 50/188/10 78/189/38
f 79/190/39 80/191/40 81/192/41 82/193/42
f 57/194/17 83/195/43 84/196/44
f 57/153/17 56/152/16 70/197/30
f 64/198/24 61/199/21 60/200/20
f 85/201/45 86/202/46 64/160/24
f 62/203/22 64/204/24 60/205/20
f 62/158/22 83/206/43 63/159/23
f 57/153/17 84/207/44 58/154/18
f 83/195/43 70/208/30 63/209/23
f 84/210/44 83/206/43 62/158/22
f 84/210/44 62/158/22 60/211/20
f 57/194/17 70/208/30 83/195/43
f 84/212/44 60/156/20 58/177/18
f 87/213/47 88/214/48 52/215/12
f 89/216/49 90/217/50 91/218/51
f 67/219/27 92/220/52 88/214/48
f 88/221/48 93/222/53 94/223/54
f 88/214/48 92/220/52 90/217/50
f 52/148/12 49/145/9 95/224/55
f 96/225/56 97/226/57 98/227/58
f 65/228/25 74/229/34 69/230/29
f 65/231/25 67/232/27 94/233/54
f 94/234/54 67/219/27 88/214/48
f 74/235/34 94/233/54 99/236/59
f 100/237/60 101/238/61 65/239/25
f 97/226/57 86/240/46 98/227/58
f 102/241/62 87/213/47 52/215/12
f 55/151/15 54/150/14 98/242/58
f 69/166/29 74/187/34 77/184/37
f 65/239/25 101/238/61 66/243/26
f 65/231/25 94/233/54 74/235/34
f 93/244/53 88/214/48 87/213/47
f 103/245/63 92/220/52 67/219/27
f 67/219/27 66/246/26 103/245/63
f 49/145/9 51/147/11 95/224/55
f 95/224/55 102/247/62 52/148/12
f 104/248/64 89/216/49 105/249/65
f 86/240/46 106/250/66 98/227/58
f 88/214/48 90/217/50 89/216/49
f 101/238/61 100/237/60 107/251/67
f 101/238/61 107/251/67 53/252/13
f 101/238/61 53/252/13 108/253/68
f 101/238/61 108/253/68 109/254/69
f 101/255/61 109/256/69 110/257/70
f 106/258/66 85/201/45 63/159/23
f 90/217/50 92/220/52 111/259/71
f 94/223/54 93/222/53 99/260/59
f 107/251/67 100/237/60 112/261/72
f 112/262/72 54/263/14 107/264/67
f 106/258/66 55/151/15 98/242/58
f 85/201/45 106/258/66 86/202/46
f 106/258/66 63/159/23 89/265/49
f 98/227/58 54/266/14 96/225/56
f 91/267/51 90/268/50 111/269/71
f 53/270/13 107/271/67 54/272/14
f 113/273/73 114/274/74 115/275/75
f 114/276/74 86/277/46 115/278/75
f 113/279/73 116/280/76 114/281/74
f 115/282/75 117/283/77 118/284/78
f 54/266/14 112/285/72 96/225/56
f 113/273/73 115/275/75 118/286/78
f 112/285/72 100/287/60 119/288/79
f 120/289/80 112/285/72 119/288/79
f 96/225/56 112/285/72 120/289/80
f 121/290/81 122/291/82 123/292/83
f 121/293/81 124/294/84 125/295/85
f 122/291/82 116/280/76 123/292/83
f 124/294/84 126/296/86 125/295/85
f 117/297/77 126/296/86 127/298/87
f 117/297/77 127/298/87 118/299/78
f 128/300/88 129/301/89 86/302/46
f 126/296/86 117/297/77 125/295/85
f 117/297/77 121/293/81 125/295/85
f 116/280/76 124/303/84 123/292/83
f 124/294/84 121/293/81 123/304/83
f 130/305/90 128/306/88 86/307/46
f 130/308/90 86/277/46 114/276/74
f 130/308/90 114/276/74 131/309/91
f 116/280/76 122/291/82 114/281/74
f 129/310/89 64/160/24 86/202/46
f 130/311/90 132/312/92 129/313/89
f 129/313/89 132/312/92 59/314/19
f 129/315/89 59/316/19 64/317/24
f 64/318/24 59/155/19 61/157/21
f 130/305/90 129/319/89 128/306/88
f 133/320/93 108/321/68 55/151/15
f 91/267/51 111/269/71 109/322/69
f 91/267/51 133/320/93 89/265/49
f 89/265/49 133/320/93 106/258/66
f 55/151/15 108/321/68 53/149/13
f 134/323/94 66/243/26 101/238/61
f 110/324/70 92/220/52 134/325/94
f 101/238/61 110/326/70 134/323/94
f 109/322/69 133/320/93 91/267/51
f 66/327/26 134/328/94 103/329/63
f 92/220/52 110/324/70 111/259/71
f 111/269/71 110/330/70 109/322/69
f 108/321/68 133/320/93 109/322/69
f 134/328/94 92/331/52 103/329/63
f 87/213/47 102/241/62 135/332/95
f 136/333/96 74/235/34 99/236/59
f 136/334/96 99/260/59 93/222/53
f 136/335/96 93/244/53 87/213/47
f 136/335/96 87/213/47 135/332/95
f 102/247/62 95/224/55 135/336/95
f 136/337/96 51/338/11 74/339/34
f 95/224/55 136/340/96 135/336/95
f 95/224/55 51/147/11 136/340/96
f 75/185/35 77/184/37 79/341/39
f 137/342/97 138/343/98 139/344/99 140/345/100
f 137/346/97 80/347/40 141/348/101
f 50/188/10 142/349/102 143/350/103 78/189/38
f 137/351/97 144/352/104 139/353/99 138/354/98
f 75/175/35 79/190/39 82/193/42 70/173/30
f 50/146/10 52/148/12 71/355/31
f 114/276/74 145/356/105 131/309/91
f 146/357/106 59/358/19 147/359/107
f 145/356/105 132/360/92 131/309/91
f 145/356/105 114/276/74 147/361/107
f 100/237/60 65/239/25 69/362/29
f 59/358/19 145/363/105 147/359/107
f 131/309/91 132/360/92 130/308/90
f 88/214/48 89/216/49 104/248/64
f 88/214/48 104/248/64 148/364/108
f 148/365/108 71/355/31 52/148/12
f 52/215/12 88/214/48 148/364/108
f 127/298/87 126/296/86 113/366/73
f 116/280/76 113/279/73 124/303/84
f 113/366/73 126/296/86 124/294/84
f 127/298/87 113/366/73 118/299/78
f 145/367/105 59/314/19 132/312/92
f 85/201/45 64/160/24 63/159/23
f 77/184/37 68/164/28 69/166/29
f 59/368/19 100/369/60 69/370/29
f 55/151/15 106/258/66 133/320/93
f 149/371/109 150/372/110 151/373/111
f 152/374/112 150/375/110 153/376/113
f 154/377/114 155/378/115 156/379/116
f 157/380/117 151/381/111 158/382/118
f 159/383/119 158/384/118 151/385/111
f 158/382/118 154/386/114 157/380/117
f 159/387/119 160/388/120 150/372/110
f 152/389/112 159/387/119 150/372/110
f 158/390/118 159/391/119 155/378/115
f 151/373/111 150/372/110 160/388/120
f 159/392/119 151/393/111 160/394/120
f 158/390/118 155/378/115 154/377/114
f 161/395/121 162/396/122 163/397/123
f 163/398/123 162/399/122 164/400/124
f 161/401/121 165/402/125 166/403/126
f 162/396/122 161/395/121 167/404/127
f 152/405/112 155/378/115 159/391/119
f 63/209/23 70/208/30 168/406/128
f 63/159/23 169/407/129 164/400/124
f 168/406/128 70/208/30 72/408/32
f 63/209/23 168/406/128 169/409/129
f 89/265/49 63/159/23 164/400/124
f 89/265/49 164/400/124 105/410/65
f 71/411/31 148/412/108 170/413/130
f 71/168/31 170/414/130 76/179/36
f 165/415/125 161/416/121 171/417/131
f 169/409/129 168/406/128 171/418/131
f 172/419/132 173/420/133 165/402/125
f 172/421/132 165/422/125 171/423/131
f 161/401/121 166/403/126 167/424/127
f 171/425/131 161/426/121 163/427/123
f 76/179/36 174/428/134 175/429/135
f 175/429/135 174/428/134 176/430/136
f 176/431/136 174/432/134 177/433/137
f 176/434/136 177/435/137 173/436/133
f 173/437/133 177/438/137 156/439/116
f 173/440/133 156/441/116 178/442/138
f 178/442/138 156/441/116 155/443/115
f 175/429/135 176/430/136 179/444/139
f 175/429/135 179/444/139 180/445/140
f 173/446/133 178/447/138 166/448/126
f 181/449/141 182/450/142 183/451/143 184/452/144
f 166/403/126 165/402/125 173/420/133
f 179/444/139 183/451/143 185/453/145 180/445/140
f 171/418/131 168/406/128 186/454/146
f 168/406/128 72/408/32 186/454/146
f 171/455/131 187/456/147 176/457/136
f 171/458/131 176/459/136 172/460/132
f 171/418/131 188/461/148 187/462/147
f 186/454/146 180/463/140 188/461/148
f 177/438/137 189/464/149 157/465/117 156/439/116
f 181/466/141 187/462/147 188/461/148
f 186/454/146 72/408/32 175/467/135
f 180/463/140 185/468/145 181/466/141 188/461/148
f 163/398/123 169/407/129 171/469/131
f 166/448/126 178/447/138 167/470/127
f 180/463/140 186/454/146 175/467/135
f 171/418/131 186/454/146 188/461/148
f 72/169/32 76/179/36 175/429/135
f 187/456/147 181/471/141 184/472/144 176/457/136
f 176/473/136 173/420/133 172/419/132
f 148/364/108 104/248/64 153/474/113
f 148/364/108 153/474/113 149/475/109
f 148/476/108 149/477/109 170/414/130
f 153/478/113 150/372/110 149/371/109
f 155/479/115 152/374/112 178/480/138
f 174/428/134 170/414/130 149/477/109
f 156/481/116 157/380/117 154/386/114
f 151/482/111 157/483/117 174/428/134
f 76/179/36 170/414/130 174/428/134
f 177/484/137 174/428/134 157/483/117 189/485/149
f 153/486/113 104/487/64 178/488/138
f 178/488/138 104/487/64 105/489/65
f 178/480/138 152/374/112 153/376/113
f 164/400/124 169/407/129 163/398/123
f 167/404/127 178/488/138 105/489/65
f 174/428/134 149/477/109 151/482/111
f 162/490/122 105/491/65 164/492/124
f 162/396/122 167/404/127 105/489/65
f 190/493/150 191/494/151 192/495/152 193/496/153
f 194/497/154 142/498/102 191/499/151 190/500/150
f 140/501/100 193/496/153 192/495/152 81/192/41
f 139/344/99 190/502/150 193/503/153 140/345/100
f 144/504/104 137/346/97 141/348/101 143/350/103
f 144/505/104 194/506/154 190/502/150 139/344/99
f 80/191/40 137/507/97 140/501/100 81/192/41
f 80/347/40 79/341/39 77/184/37 141/348/101
f 142/349/102 194/508/154 144/504/104 143/350/103
f 191/494/151 71/509/31 70/173/30 192/495/152
f 142/498/102 50/510/10 71/511/31 191/499/151
f 192/495/152 70/173/30 82/193/42 81/192/41
f 141/348/101 77/184/37 78/189/38 143/350/103
f 183/451/143 179/444/139 176/430/136 184/452/144
f 183/451/143 182/450/142 181/449/141 185/453/145
